[Material]
friendly_name                   = Liquid helium
short_name                      = Liquid helium
atomic_number                   = 2
atomic_mass                     = 4.002602 gram / mole
specific_gravity                = 0.1249 gram / centimeter ** 3
mean_excitation_energy          = 41.8 electron_volt
minimum_ionization              = 1.936 centimeter ** 2 * megaelectron_volt / gram
nuclear_collision_length        = 51.8 gram / centimeter ** 2
nuclear_interaction_length      = 71.0 gram / centimeter ** 2
pion_collision_length           = 79.5 gram / centimeter ** 2
pion_interaction_length         = 103.6 gram / centimeter ** 2
radiation_length                = 94.32 gram / centimeter ** 2
critical_energy_electrons       = 208.25 megaelectron_volt
critical_energy_positrons       = 203.34 megaelectron_volt
moliere_radius                  = 9.6 gram / centimeter ** 2
plasma_energy                   = 7.2 electron_volt
muon_critical_energy            = 2020.0 gigaelectron_volt
boiling_point                   = 4.22 kelvin
index_of_refraction             = 1.024
