[Material]
friendly_name                   = Nitrogen gas
short_name                      = Nitrogen gas
atomic_number                   = 7
atomic_mass                     = 14.007 gram / mole
specific_gravity                = 0.001165 gram / centimeter ** 3
mean_excitation_energy          = 82.0 electron_volt
minimum_ionization              = 1.825 centimeter ** 2 * megaelectron_volt / gram
nuclear_collision_length        = 61.1 gram / centimeter ** 2
nuclear_interaction_length      = 89.7 gram / centimeter ** 2
pion_collision_length           = 88.4 gram / centimeter ** 2
pion_interaction_length         = 121.7 gram / centimeter ** 2
radiation_length                = 37.99 gram / centimeter ** 2
critical_energy_electrons       = 91.74 megaelectron_volt
critical_energy_positrons       = 89.71 megaelectron_volt
moliere_radius                  = 8.78 gram / centimeter ** 2
plasma_energy                   = 0.7 electron_volt
muon_critical_energy            = 1154.0 gigaelectron_volt
melting_point                   = 63.15 kelvin
boiling_point                   = 77.29 kelvin
