[Material]
friendly_name                   = Technetium
short_name                      = Tc
atomic_number                   = 43
atomic_mass                     = 97.90722 gram / mole
specific_gravity                = 11.5 gram / centimeter ** 3
mean_excitation_energy          = 428.0 electron_volt
minimum_ionization              = 1.325 centimeter ** 2 * megaelectron_volt / gram
nuclear_collision_length        = 93.5 gram / centimeter ** 2
nuclear_interaction_length      = 156.8 gram / centimeter ** 2
pion_collision_length           = 118.1 gram / centimeter ** 2
pion_interaction_length         = 184.7 gram / centimeter ** 2
radiation_length                = 9.58 gram / centimeter ** 2
critical_energy_electrons       = 13.46 megaelectron_volt
critical_energy_positrons       = 13.01 megaelectron_volt
moliere_radius                  = 15.09 gram / centimeter ** 2
plasma_energy                   = 64.76 electron_volt
muon_critical_energy            = 232.0 gigaelectron_volt
melting_point                   = 2430.0 kelvin
boiling_point                   = 4538.0 kelvin
